#-----------------------------------------------------------
# Webtalk v2015.4 (64-bit)
# SW Build 1412921 on Wed Nov 18 09:44:32 MST 2015
# IP Build 1412160 on Tue Nov 17 13:47:24 MST 2015
# Start of session at: Sat Jan 23 13:21:08 2016
# Process ID: 8285
# Current directory: /home/vir/Lab2/Lab2.sim/sim_3/behav
# Command line: wbtcv -mode batch -source /home/vir/Lab2/Lab2.sim/sim_3/behav/xsim.dir/adder8bit_test_behav/webtalk/xsim_webtalk.tcl -notrace
# Log file: /home/vir/Lab2/Lab2.sim/sim_3/behav/webtalk.log
# Journal file: /home/vir/Lab2/Lab2.sim/sim_3/behav/webtalk.jou
#-----------------------------------------------------------
source /home/vir/Lab2/Lab2.sim/sim_3/behav/xsim.dir/adder8bit_test_behav/webtalk/xsim_webtalk.tcl -notrace
INFO: [Common 17-206] Exiting Webtalk at Sat Jan 23 13:21:08 2016...
